dump.vcd
$date
    Jul  6, 2026  14:49:26
$end
$version
    TOOL:	xmsim(64)	20.03-s007
$end
$timescale
    1 ps
$end

$scope module tb_top $end
$var reg       1 !    clk $end

$scope module vif $end
$var reg       1 "    wr $end
$var reg       1 #    clk $end
$var reg       1 $    rst $end
$var reg       8 %    addr [7:0] $end
$var reg       8 &    din [7:0] $end
$var reg       8 '    dout [7:0] $end
$var reg       1 (    done $end
$var reg       1 )    err $end
$upscope $end


$scope module dut $end
$var wire      1 *    wr  $end
$var wire      1 +    clk  $end
$var wire      1 ,    rst  $end
$var wire      8 -    addr [7:0] $end
$var wire      8 .    din [7:0] $end
$var wire      8 /    dout [7:0] $end
$var wire      1 0    done  $end
$var wire      1 1    err  $end
$var wire      1 2    csreg  $end
$var wire      1 3    mosireg  $end
$var wire      1 4    misoreg  $end
$var wire      1 5    readyreg  $end
$var wire      1 6    opdonereg  $end

$scope module intf $end
$var wire      1 *    wr  $end
$var wire      1 +    clk  $end
$var wire      1 ,    rst  $end
$var wire      1 5    ready  $end
$var wire      1 6    op_done  $end
$var wire      8 -    addr [7:0] $end
$var wire      8 .    din [7:0] $end
$var wire      8 /    dout [7:0] $end
$var reg       1 7    cs $end
$var reg       1 8    mosi $end
$var wire      1 4    miso  $end
$var reg       1 9    done $end
$var reg       1 :    err $end
$var reg      17 ;    din_reg [16:0] $end
$var reg       8 <    dout_reg [7:0] $end
$var integer  32 =    count $end
$var reg       3 >    state [2:0] $end
$upscope $end


$scope module mem_inst $end
$var wire      1 +    clk  $end
$var wire      1 ,    rst  $end
$var wire      1 2    cs  $end
$var wire      1 3    mosi  $end
$var reg       1 ?    ready $end
$var reg       1 @    miso $end
$var reg       1 A    op_done $end
$var reg       8 B    mem[31] [7:0] $end
$var reg       8 C    mem[30] [7:0] $end
$var reg       8 D    mem[29] [7:0] $end
$var reg       8 E    mem[28] [7:0] $end
$var reg       8 F    mem[27] [7:0] $end
$var reg       8 G    mem[26] [7:0] $end
$var reg       8 H    mem[25] [7:0] $end
$var reg       8 I    mem[24] [7:0] $end
$var reg       8 J    mem[23] [7:0] $end
$var reg       8 K    mem[22] [7:0] $end
$var reg       8 L    mem[21] [7:0] $end
$var reg       8 M    mem[20] [7:0] $end
$var reg       8 N    mem[19] [7:0] $end
$var reg       8 O    mem[18] [7:0] $end
$var reg       8 P    mem[17] [7:0] $end
$var reg       8 Q    mem[16] [7:0] $end
$var reg       8 R    mem[15] [7:0] $end
$var reg       8 S    mem[14] [7:0] $end
$var reg       8 T    mem[13] [7:0] $end
$var reg       8 U    mem[12] [7:0] $end
$var reg       8 V    mem[11] [7:0] $end
$var reg       8 W    mem[10] [7:0] $end
$var reg       8 X    mem[9] [7:0] $end
$var reg       8 Y    mem[8] [7:0] $end
$var reg       8 Z    mem[7] [7:0] $end
$var reg       8 [    mem[6] [7:0] $end
$var reg       8 \    mem[5] [7:0] $end
$var reg       8 ]    mem[4] [7:0] $end
$var reg       8 ^    mem[3] [7:0] $end
$var reg       8 _    mem[2] [7:0] $end
$var reg       8 `    mem[1] [7:0] $end
$var reg       8 a    mem[0] [7:0] $end
$var integer  32 b    i $end
$var integer  32 c    count $end
$var reg      16 d    datain [15:0] $end
$var reg       8 e    dataout [7:0] $end
$var reg       3 f    state [2:0] $end
$upscope $end

$upscope $end

$upscope $end


$scope module cdns_uvm_pkg $end
$var parameter 32 g    UVM_SET_VERBOSITY $end
$var parameter 32 h    UVM_GET_VERBOSITY $end
$var parameter 32 i    UVM_SET_ACTIONS $end
$var parameter 32 j    UVM_GET_ACTIONS $end
$var parameter 32 k    UVM_SET_STYLE $end
$var parameter 32 l    UVM_GET_STYLE $end
$var parameter 32 m    UVM_SET_SEVERITY $end
$var parameter 32 n    UVM_GET_SEVERITY $end
$var event     1 o    uvm_build_complete $end
$var reg       1 p    uvm_phase_is_start $end
$var reg       1 q    uvm_ml_mode $end
$var event     1 r    cdns_uvm_data_valid $end

$scope function uvm_cdns_report_server_setup $end
$var reg       1 s    uvm_cdns_report_server_setup $end
$var reg       1 t    enable $end
$upscope $end


$scope task cdns_tcl_print_component $end
$var integer  32 u    depth $end
$var reg       1 v    nooutput $end
$var integer  32 w    fp $end
$upscope $end


$scope task cdns_tcl_print_components $end
$var integer  32 x    depth $end
$var reg       1 y    all $end
$var reg       1 z    nooutput $end
$var integer  32 {    fp $end
$upscope $end


$scope task cdns_tcl_list_components $end
$var reg       1 |    nooutput $end
$var integer  32 }    fp $end
$upscope $end


$scope task cdns_tcl_set $end
$var reg      4096 ~    value [4095:0] $end
$var reg       1 !!   do_config $end
$upscope $end


$scope task cdns_tcl_set_string $end
$var reg       1 "!   do_config $end
$upscope $end


$scope task cdns_tcl_set_message $end
$var integer  32 #!   verbosity $end
$upscope $end


$scope task cdns_tcl_get_message $end
$var integer  32 $!   fp $end
$var integer  32 %!   verbosity $end
$upscope $end


$scope function cdns_tcl_uvm_message_hyperlinks $end
$var integer  32 &!   cdns_tcl_uvm_message_hyperlinks $end
$var integer  32 '!   enable $end
$var integer  32 (!   status $end
$upscope $end

$upscope $end


$scope module cdns_assert2uvm_pkg $end
$var integer  32 )!   verbosity $end
$upscope $end


$scope module uvm_pkg $end
$var parameter 32 *!   UVM_HDL_MAX_WIDTH $end
$var parameter 328 +!   uvm_mgc_copyright $end
$var parameter 336 ,!   uvm_cdn_copyright $end
$var parameter 224 -!   uvm_snps_copyright $end
$var parameter 328 .!   uvm_cy_copyright $end
$var parameter 208 /!   uvm_revision $end
$var reg       1 0!   uvm_start_uvm_declarations $end
$var parameter 32 1!   UVM_STREAMBITS $end
$var parameter 32 2!   UVM_RADIX $end
$var parameter 32 3!   UVM_MACRO_NUMFLAGS $end
$var parameter 32 4!   UVM_DEFAULT $end
$var parameter 32 5!   UVM_ALL_ON $end
$var parameter 32 6!   UVM_FLAGS_ON $end
$var parameter 32 7!   UVM_FLAGS_OFF $end
$var parameter 32 8!   UVM_COPY $end
$var parameter 32 9!   UVM_NOCOPY $end
$var parameter 32 :!   UVM_COMPARE $end
$var parameter 32 ;!   UVM_NOCOMPARE $end
$var parameter 32 <!   UVM_PRINT $end
$var parameter 32 =!   UVM_NOPRINT $end
$var parameter 32 >!   UVM_RECORD $end
$var parameter 32 ?!   UVM_NORECORD $end
$var parameter 32 @!   UVM_PACK $end
$var parameter 32 A!   UVM_NOPACK $end
$var parameter 32 B!   UVM_PHYSICAL $end
$var parameter 32 C!   UVM_ABSTRACT $end
$var parameter 32 D!   UVM_READONLY $end
$var parameter 32 E!   UVM_NODEFPRINT $end
$var parameter 32 F!   UVM_MACRO_EXTRAS $end
$var parameter 32 G!   UVM_FLAGS $end
$var parameter 32 H!   UVM_UNPACK $end
$var parameter 32 I!   UVM_CHECK_FIELDS $end
$var parameter 32 J!   UVM_END_DATA_EXTRA $end
$var parameter 32 K!   UVM_START_FUNCS $end
$var parameter 32 L!   UVM_SET $end
$var parameter 32 M!   UVM_SETINT $end
$var parameter 32 N!   UVM_SETOBJ $end
$var parameter 32 O!   UVM_SETSTR $end
$var parameter 32 P!   UVM_END_FUNCS $end
$var integer  32 Q!   uvm_global_random_seed $end
$var parameter 32 R!   UVM_STR_CRC_POLYNOMIAL $end
$var parameter 32 S!   UVM_STDOUT $end
$var parameter 32 T!   UVM_LINE_WIDTH $end
$var parameter 32 U!   UVM_NUM_LINES $end
$var parameter 32 V!   UVM_SMALL_STRING $end
$var parameter 32 W!   UVM_LARGE_STRING $end
$var integer  32 X!   UVM_UNBOUNDED_CONNECTIONS $end

$scope function uvm_hdl_check_path $end
$var integer  32 Y!   uvm_hdl_check_path $end
$upscope $end


$scope function uvm_hdl_deposit $end
$var integer  32 Z!   uvm_hdl_deposit $end
$var reg      1024 [!   value [1023:0] $end
$upscope $end


$scope function uvm_hdl_force $end
$var integer  32 \!   uvm_hdl_force $end
$var reg      1024 ]!   value [1023:0] $end
$upscope $end


$scope task uvm_hdl_force_time $end
$var reg      1024 ^!   value [1023:0] $end
$var time     64 _!   force_time $end
$upscope $end


$scope function uvm_hdl_release_and_read $end
$var integer  32 `!   uvm_hdl_release_and_read $end
$var reg      1024 a!   value [1023:0] $end
$upscope $end


$scope function uvm_hdl_release $end
$var integer  32 b!   uvm_hdl_release $end
$upscope $end


$scope function uvm_hdl_read $end
$var integer  32 c!   uvm_hdl_read $end
$var reg      1024 d!   value [1023:0] $end
$upscope $end


$scope function uvm_dpi_get_next_arg_c $end
$var integer  32 e!   init $end
$upscope $end


$scope function uvm_dpi_get_next_arg $end
$var integer  32 f!   init $end
$upscope $end


$scope function uvm_dpi_regexec $end
$var integer  32 g!   uvm_dpi_regexec $end
$upscope $end


$scope function uvm_re_match $end
$var integer  32 h!   uvm_re_match $end
$upscope $end


$scope function uvm_regcomp $end
$var reg      64 i!   uvm_regcomp [63:0] $end
$upscope $end


$scope function uvm_regexec $end
$var integer  32 j!   uvm_regexec $end
$var reg      64 k!   re [63:0] $end
$var integer  32 l!   nmatch $end
$var reg      64 m!   ptr [63:0] $end
$var integer  32 n!   eflags $end
$upscope $end


$scope task uvm_regfree $end
$var reg      64 o!   re [63:0] $end
$upscope $end


$scope function uvm_radix_to_string $end
$var reg      32 p!   radix [31:0] $end
$upscope $end


$scope function uvm_instance_scope $end
$var reg       8 q!   c [7:0] $end
$var integer  32 r!   pos $end
$upscope $end


$scope function uvm_oneway_hash $end
$var integer  32 s!   uvm_oneway_hash $end
$var integer  32 t!   seed $end
$var reg       1 u!   msb $end
$var reg       8 v!   current_byte [7:0] $end
$var reg      32 w!   crc1 [31:0] $end
$upscope $end


$scope function uvm_create_random_seed $end
$var integer  32 x!   uvm_create_random_seed $end
$upscope $end


$scope function uvm_leaf_scope $end
$var reg       8 y!   scope_separator [7:0] $end
$var reg       8 z!   bracket_match [7:0] $end
$var integer  32 {!   pos $end
$var integer  32 |!   bmatches $end
$upscope $end


$scope function uvm_vector_to_string $end
$var reg      4096 }!   value [4095:0] $end
$var integer  32 ~!   size $end
$var reg      32 !"   radix [31:0] $end
$var reg      4096 ""   v [4095:0] $end
$upscope $end


$scope function uvm_get_array_index_int $end
$var integer  32 #"   uvm_get_array_index_int $end
$var reg       1 $"   is_wildcard $end
$var integer  32 %"   i $end
$upscope $end


$scope function uvm_get_array_index_string $end
$var reg       1 &"   is_wildcard $end
$var integer  32 '"   i $end
$upscope $end


$scope function uvm_is_array $end
$var reg       1 ("   uvm_is_array $end
$upscope $end


$scope task set_global_timeout $end
$var time     64 )"   timeout $end
$var reg       1 *"   overridable $end
$upscope $end


$scope task set_global_stop_timeout $end
$var time     64 +"   timeout $end
$upscope $end


$scope function uvm_report_enabled $end
$var reg       1 ,"   uvm_report_enabled $end
$var integer  32 -"   verbosity $end
$var reg       2 ."   severity [1:0] $end
$upscope $end


$scope task uvm_report $end
$var reg       2 /"   severity [1:0] $end
$var integer  32 0"   verbosity $end
$var integer  32 1"   line $end
$upscope $end


$scope task uvm_report_info $end
$var integer  32 2"   verbosity $end
$var integer  32 3"   line $end
$upscope $end


$scope task uvm_report_warning $end
$var integer  32 4"   verbosity $end
$var integer  32 5"   line $end
$upscope $end


$scope task uvm_report_error $end
$var integer  32 6"   verbosity $end
$var integer  32 7"   line $end
$upscope $end


$scope task uvm_report_fatal $end
$var integer  32 8"   verbosity $end
$var integer  32 9"   line $end
$upscope $end


$scope function uvm_string_to_severity $end
$var reg       1 :"   uvm_string_to_severity $end
$var reg       2 ;"   sev [1:0] $end
$upscope $end


$scope task set_config_int $end
$var reg      4096 <"   value [4095:0] $end
$upscope $end


$scope task set_config_object $end
$var reg       1 ="   clone $end
$upscope $end


$scope function uvm_is_match $end
$var reg       1 >"   uvm_is_match $end
$upscope $end


$scope task uvm_wait_for_nba_region $end
$var integer  32 ?"   nba $end
$var integer  32 @"   next_nba $end
$upscope $end

$upscope $end

$enddefinitions $end
$dumpvars
b11100000111111111 W!
b1110111111 V!
b1111000 U!
b1111000 T!
b1 S!
b100110000010001110110110110 R!
b100000000000001000 P!
b100000000000001000 O!
b100000000000000111 N!
b100000000000000110 M!
b100000000000000110 L!
b100000000000000101 K!
b100000000000000100 J!
b100000000000000011 I!
b100000000000000010 H!
b100000000000000001 G!
b100000000000000000 F!
b10000000000000000 E!
b1000000000000000 D!
b100000000000000 C!
b10000000000000 B!
b1000000000 A!
b100000000 @!
b10000000 ?!
b1000000 >!
b100000 =!
b10000 <!
b1000 ;!
b100 :!
b10 9!
b1 8!
b0 7!
b101010101 6!
b101010101 5!
b10101010101 4!
b10001 3!
b1111000000000000000000000000 2!
b1000000000000 1!
b100001000000000000000000000000000001000000000000000000000000000000001100000000000000000000000000100000000000000000000000000000000001000000000000000000000000000000001100000000000000000000000000011001 /!
b1100000000000000000000000000100001000000000000000000000000000001000000000000000000000000000000001100000000000000000000000000100000000000000000000000000000000001000000000000000000000000000000001100000000000000000000000000011001000000000000000000000000000001000000000000000000000000000000001100000000000000000000000000011000 .!
b11001000000000000000000000000000001000000000000000000000000000000001100000000000000000000000000011000000000000000000000000000000001000000000000000000000000000000001100000000000000000000000000010111 -!
b1100000000000000000000000000011001000000000000000000000000000001000000000000000000000000000000001100000000000000000000000000011000000000000000000000000000000001000000000000000000000000000000001100000000000000000000000000010111000000000000000000000000000001000000000000000000000000000000001100000000000000000000000000010110 ,!
b1100000000000000000000000000011000000000000000000000000000000001000000000000000000000000000000001100000000000000000000000000010111000000000000000000000000000001000000000000000000000000000000001100000000000000000000000000010110000000000000000000000000000001000000000000000000000000000000001100000000000000000000000000010101 +!
b10000000000 *!
b111 n
b110 m
b101 l
b100 k
b11 j
b10 i
b1 h
b0 g
0!
0"
0#
1$
b0 %
b0 &
bx '
x(
x)
0*
0+
1,
b0 -
b0 .
bx /
x0
x1
x2
x3
x4
x5
x6
x7
x8
x9
x:
bx ;
bx <
b0 =
b0 >
x?
x@
xA
b0 B
b0 C
b0 D
b0 E
b0 F
b0 G
b0 H
b0 I
b0 J
b0 K
b0 L
b0 M
b0 N
b0 O
b0 P
b0 Q
b0 R
b0 S
b0 T
b0 U
b0 V
b0 W
b0 X
b0 Y
b0 Z
b0 [
b0 \
b0 ]
b0 ^
b0 _
b0 `
b0 a
b100000 b
b0 c
bx d
bx e
b0 f
xo
1p
0q
xr
xs
0t
b0 u
0v
bx w
b0 x
0y
0z
bx {
x|
bx }
bx ~
0!!
0"!
b0 #!
bx $!
b0 %!
b0 &!
b0 '!
b0 (!
b0 )!
10!
b11111000100011110010100000011 Q!
b11111111111111111111111111111111 X!
b0 Y!
b0 Z!
bx [!
b0 \!
bx ]!
bx ^!
bx _!
b0 `!
bx a!
b0 b!
b0 c!
bx d!
b0 e!
b0 f!
b0 g!
b0 h!
b0 i!
b0 j!
b0 k!
b0 l!
b0 m!
b0 n!
b0 o!
b0 p!
b111010 q!
b1000 r!
b1101000011010011000110000010100 s!
b11111000100011110010100000011 t!
0u!
b1110001 v!
b11101110010110001010100010110110 w!
b11101110001101010101111100011100 x!
b0 y!
b0 z!
b0 {!
b0 |!
bx }!
b0 ~!
b0 !"
bx ""
b0 #"
0$"
b0 %"
0&"
b0 '"
0("
bx )"
0*"
bx +"
0,"
b111110100 -"
b0 ."
b0 /"
b0 0"
b0 1"
b0 2"
b0 3"
b0 4"
b0 5"
b0 6"
b0 7"
b0 8"
b0 9"
0:"
b0 ;"
bx <"
0="
0>"
b100011 ?"
b100011 @"
$end
#5000
1!
1#
1+
0@
0?
0A
b0 d
b0 e
17
08
0:
09
b0 <
b0 ;
b0 /
00
01
03
12
06
05
04
b0 '
0(
0)
#10000
0!
0#
0+
#15000
1!
1#
1+
#20000
0!
0#
0+
#25000
1!
1#
1+
#30000
0!
0#
0+
#35000
1!
1#
1+
#40000
0!
0#
0+
#45000
1!
1#
b100100 @"
1+
0$
b100100 ?"
0,
1"
b110 %
b101001 &
b101001 .
b110 -
1*
#50000
0!
0#
0+
#55000
1!
1#
1+
b1 >
#60000
0!
0#
0+
#65000
1!
1#
1+
b101001000001101 ;
b10 >
#70000
0!
0#
0+
#75000
1!
1#
1+
07
b11 >
02
#80000
0!
0#
0+
#85000
1!
1#
1+
b1 f
b1 =
18
13
#90000
0!
0#
0+
#95000
1!
1#
1+
b10 f
b10 =
08
03
#100000
0!
0#
0+
#105000
1!
1#
1+
b1 c
b11 =
18
13
#110000
0!
0#
0+
#115000
1!
1#
1+
b10 d
b10 c
b100 =
#120000
0!
0#
0+
#125000
1!
1#
1+
b110 d
b11 c
b101 =
08
03
#130000
0!
0#
0+
#135000
1!
1#
1+
b100 c
b110 =
#140000
0!
0#
0+
#145000
1!
1#
1+
b101 c
b111 =
#150000
0!
0#
0+
#155000
1!
1#
1+
b110 c
b1000 =
#160000
0!
0#
0+
#165000
1!
1#
1+
b111 c
b1001 =
#170000
0!
0#
0+
#175000
1!
1#
1+
b1000 c
b1010 =
18
13
#180000
0!
0#
0+
#185000
1!
1#
1+
b100000110 d
b1001 c
b1011 =
08
03
#190000
0!
0#
0+
#195000
1!
1#
1+
b1010 c
b1100 =
#200000
0!
0#
0+
#205000
1!
1#
1+
b1011 c
b1101 =
18
13
#210000
0!
0#
0+
#215000
1!
1#
1+
b100100000110 d
b1100 c
b1110 =
08
03
#220000
0!
0#
0+
#225000
1!
1#
1+
b1101 c
b1111 =
18
13
#230000
0!
0#
0+
#235000
1!
1#
1+
b10100100000110 d
b1110 c
b10000 =
08
03
#240000
0!
0#
0+
#245000
1!
1#
1+
b1111 c
b10001 =
#250000
0!
0#
0+
#255000
1!
1#
1+
b10000 c
17
12
#260000
0!
0#
0+
#265000
1!
1#
1+
b101001 [
b0 f
b0 c
1A
16
#270000
0!
0#
0+
#275000
1!
1#
1+
0A
b0 d
b0 =
19
b0 >
10
06
1(
#280000
0!
0#
0+
#285000
1!
1#
1+
b1 >
09
00
0(
b100101 @"
b1101000011010011000110000010101 x!
b100101 ?"
b10011 %
b11001011 &
b11001011 .
b10011 -
#290000
0!
0#
0+
#295000
1!
1#
1+
b11001011000100111 ;
b10 >
#300000
0!
0#
0+
#305000
1!
1#
1+
07
b11 >
02
#310000
0!
0#
0+
#315000
1!
1#
1+
b1 f
b1 =
18
13
#320000
0!
0#
0+
#325000
1!
1#
1+
b10 f
b10 =
#330000
0!
0#
0+
#335000
1!
1#
1+
b1 d
b1 c
b11 =
#340000
0!
0#
0+
#345000
1!
1#
1+
b11 d
b10 c
b100 =
08
03
#350000
0!
0#
0+
#355000
1!
1#
1+
b11 c
b101 =
#360000
0!
0#
0+
#365000
1!
1#
1+
b100 c
b110 =
18
13
#370000
0!
0#
0+
#375000
1!
1#
1+
b10011 d
b101 c
b111 =
08
03
#380000
0!
0#
0+
#385000
1!
1#
1+
b110 c
b1000 =
#390000
0!
0#
0+
#395000
1!
1#
1+
b111 c
b1001 =
#400000
0!
0#
0+
#405000
1!
1#
1+
b1000 c
b1010 =
18
13
#410000
0!
0#
0+
#415000
1!
1#
1+
b100010011 d
b1001 c
b1011 =
#420000
0!
0#
0+
#425000
1!
1#
1+
b1100010011 d
b1010 c
b1100 =
08
03
#430000
0!
0#
0+
#435000
1!
1#
1+
b1011 c
b1101 =
18
13
#440000
0!
0#
0+
#445000
1!
1#
1+
b101100010011 d
b1100 c
b1110 =
08
03
#450000
0!
0#
0+
#455000
1!
1#
1+
b1101 c
b1111 =
#460000
0!
0#
0+
#465000
1!
1#
1+
b1110 c
b10000 =
18
13
#470000
0!
0#
0+
#475000
1!
1#
1+
b100101100010011 d
b1111 c
b10001 =
#480000
0!
0#
0+
#485000
1!
1#
1+
b1100101100010011 d
b10000 c
17
08
03
12
#490000
0!
0#
0+
#495000
1!
1#
1+
b11001011 N
b0 f
b0 c
1A
16
#500000
0!
0#
0+
#505000
1!
1#
1+
0A
b0 d
b0 =
19
b0 >
10
06
1(
#510000
0!
0#
0+
#515000
1!
1#
1+
b1 >
09
00
0(
b100110 @"
b1101000011010011000110000010111 x!
b100110 ?"
b1110 %
b1111 &
b1111 .
b1110 -
#520000
0!
0#
0+
#525000
1!
1#
1+
b1111000011101 ;
b10 >
#530000
0!
0#
0+
#535000
1!
1#
1+
07
b11 >
02
#540000
0!
0#
0+
#545000
1!
1#
1+
b1 f
b1 =
18
13
#550000
0!
0#
0+
#555000
1!
1#
1+
b10 f
b10 =
08
03
#560000
0!
0#
0+
#565000
1!
1#
1+
b1 c
b11 =
18
13
#570000
0!
0#
0+
#575000
1!
1#
1+
b10 d
b10 c
b100 =
#580000
0!
0#
0+
#585000
1!
1#
1+
b110 d
b11 c
b101 =
#590000
0!
0#
0+
#595000
1!
1#
1+
b1110 d
b100 c
b110 =
08
03
#600000
0!
0#
0+
#605000
1!
1#
1+
b101 c
b111 =
#610000
0!
0#
0+
#615000
1!
1#
1+
b110 c
b1000 =
#620000
0!
0#
0+
#625000
1!
1#
1+
b111 c
b1001 =
#630000
0!
0#
0+
#635000
1!
1#
1+
b1000 c
b1010 =
18
13
#640000
0!
0#
0+
#645000
1!
1#
1+
b100001110 d
b1001 c
b1011 =
#650000
0!
0#
0+
#655000
1!
1#
1+
b1100001110 d
b1010 c
b1100 =
#660000
0!
0#
0+
#665000
1!
1#
1+
b11100001110 d
b1011 c
b1101 =
#670000
0!
0#
0+
#675000
1!
1#
1+
b111100001110 d
b1100 c
b1110 =
08
03
#680000
0!
0#
0+
#685000
1!
1#
1+
b1101 c
b1111 =
#690000
0!
0#
0+
#695000
1!
1#
1+
b1110 c
b10000 =
#700000
0!
0#
0+
#705000
1!
1#
1+
b1111 c
b10001 =
#710000
0!
0#
0+
#715000
1!
1#
1+
b10000 c
17
12
#720000
0!
0#
0+
#725000
1!
1#
1+
b1111 S
b0 f
b0 c
1A
16
#730000
0!
0#
0+
#735000
1!
1#
1+
0A
b0 d
b0 =
19
b0 >
10
06
1(
#740000
0!
0#
0+
#745000
1!
1#
1+
b1 >
09
00
0(
b100111 @"
b1101000011010011000110000011010 x!
b100111 ?"
b10101 %
b11110101 &
b11110101 .
b10101 -
#750000
0!
0#
0+
#755000
1!
1#
1+
b11110101000101011 ;
b10 >
#760000
0!
0#
0+
#765000
1!
1#
1+
07
b11 >
02
#770000
0!
0#
0+
#775000
1!
1#
1+
b1 f
b1 =
18
13
#780000
0!
0#
0+
#785000
1!
1#
1+
b10 f
b10 =
#790000
0!
0#
0+
#795000
1!
1#
1+
b1 d
b1 c
b11 =
08
03
#800000
0!
0#
0+
#805000
1!
1#
1+
b10 c
b100 =
18
13
#810000
0!
0#
0+
#815000
1!
1#
1+
b101 d
b11 c
b101 =
08
03
#820000
0!
0#
0+
#825000
1!
1#
1+
b100 c
b110 =
18
13
#830000
0!
0#
0+
#835000
1!
1#
1+
b10101 d
b101 c
b111 =
08
03
#840000
0!
0#
0+
#845000
1!
1#
1+
b110 c
b1000 =
#850000
0!
0#
0+
#855000
1!
1#
1+
b111 c
b1001 =
#860000
0!
0#
0+
#865000
1!
1#
1+
b1000 c
b1010 =
18
13
#870000
0!
0#
0+
#875000
1!
1#
1+
b100010101 d
b1001 c
b1011 =
08
03
#880000
0!
0#
0+
#885000
1!
1#
1+
b1010 c
b1100 =
18
13
#890000
0!
0#
0+
#895000
1!
1#
1+
b10100010101 d
b1011 c
b1101 =
08
03
#900000
0!
0#
0+
#905000
1!
1#
1+
b1100 c
b1110 =
18
13
#910000
0!
0#
0+
#915000
1!
1#
1+
b1010100010101 d
b1101 c
b1111 =
#920000
0!
0#
0+
#925000
1!
1#
1+
b11010100010101 d
b1110 c
b10000 =
#930000
0!
0#
0+
#935000
1!
1#
1+
b111010100010101 d
b1111 c
b10001 =
#940000
0!
0#
0+
#945000
1!
1#
1+
b1111010100010101 d
b10000 c
17
08
03
12
#950000
0!
0#
0+
#955000
1!
1#
1+
b11110101 L
b0 f
b0 c
1A
16
#960000
0!
0#
0+
#965000
1!
1#
1+
0A
b0 d
b0 =
19
b0 >
10
06
1(
#970000
0!
0#
0+
#975000
1!
1#
1+
b1 >
09
00
0(
b101000 @"
b1101000011010011000110000011110 x!
b101000 ?"
b1011 %
b1111101 &
b1111101 .
b1011 -
#980000
0!
0#
0+
#985000
1!
1#
1+
b1111101000010111 ;
b10 >
#990000
0!
0#
0+
#995000
1!
1#
1+
07
b11 >
02
#1000000
0!
0#
0+
#1005000
1!
1#
1+
b1 f
b1 =
18
13
#1010000
0!
0#
0+
#1015000
1!
1#
1+
b10 f
b10 =
#1020000
0!
0#
0+
#1025000
1!
1#
1+
b1 d
b1 c
b11 =
#1030000
0!
0#
0+
#1035000
1!
1#
1+
b11 d
b10 c
b100 =
08
03
#1040000
0!
0#
0+
#1045000
1!
1#
1+
b11 c
b101 =
18
13
#1050000
0!
0#
0+
#1055000
1!
1#
1+
b1011 d
b100 c
b110 =
08
03
#1060000
0!
0#
0+
#1065000
1!
1#
1+
b101 c
b111 =
#1070000
0!
0#
0+
#1075000
1!
1#
1+
b110 c
b1000 =
#1080000
0!
0#
0+
#1085000
1!
1#
1+
b111 c
b1001 =
#1090000
0!
0#
0+
#1095000
1!
1#
1+
b1000 c
b1010 =
18
13
#1100000
0!
0#
0+
#1105000
1!
1#
1+
b100001011 d
b1001 c
b1011 =
08
03
#1110000
0!
0#
0+
#1115000
1!
1#
1+
b1010 c
b1100 =
18
13
#1120000
0!
0#
0+
#1125000
1!
1#
1+
b10100001011 d
b1011 c
b1101 =
#1130000
0!
0#
0+
#1135000
1!
1#
1+
b110100001011 d
b1100 c
b1110 =
#1140000
0!
0#
0+
#1145000
1!
1#
1+
b1110100001011 d
b1101 c
b1111 =
#1150000
0!
0#
0+
#1155000
1!
1#
1+
b11110100001011 d
b1110 c
b10000 =
#1160000
0!
0#
0+
#1165000
1!
1#
1+
b111110100001011 d
b1111 c
b10001 =
08
03
#1170000
0!
0#
0+
#1175000
1!
1#
1+
b10000 c
17
12
#1180000
0!
0#
0+
#1185000
1!
1#
1+
b1111101 V
b0 f
b0 c
1A
16
#1190000
0!
0#
0+
#1195000
1!
1#
1+
0A
b0 d
b0 =
19
b0 >
10
06
1(
#1200000
0!
0#
0+
#1205000
1!
1#
1+
b1 >
09
00
0(
b101001 @"
b1101000011010011000110000100011 x!
b101001 ?"
b1101 %
b10100111 &
b10100111 .
b1101 -
#1210000
0!
0#
0+
#1215000
1!
1#
1+
b10100111000011011 ;
b10 >
#1220000
0!
0#
0+
#1225000
1!
1#
1+
07
b11 >
02
#1230000
0!
0#
0+
#1235000
1!
1#
1+
b1 f
b1 =
18
13
#1240000
0!
0#
0+
#1245000
1!
1#
1+
b10 f
b10 =
#1250000
0!
0#
0+
#1255000
1!
1#
1+
b1 d
b1 c
b11 =
08
03
#1260000
0!
0#
0+
#1265000
1!
1#
1+
b10 c
b100 =
18
13
#1270000
0!
0#
0+
#1275000
1!
1#
1+
b101 d
b11 c
b101 =
#1280000
0!
0#
0+
#1285000
1!
1#
1+
b1101 d
b100 c
b110 =
08
03
#1290000
0!
0#
0+
#1295000
1!
1#
1+
b101 c
b111 =
#1300000
0!
0#
0+
#1305000
1!
1#
1+
b110 c
b1000 =
#1310000
0!
0#
0+
#1315000
1!
1#
1+
b111 c
b1001 =
#1320000
0!
0#
0+
#1325000
1!
1#
1+
b1000 c
b1010 =
18
13
#1330000
0!
0#
0+
#1335000
1!
1#
1+
b100001101 d
b1001 c
b1011 =
#1340000
0!
0#
0+
#1345000
1!
1#
1+
b1100001101 d
b1010 c
b1100 =
#1350000
0!
0#
0+
#1355000
1!
1#
1+
b11100001101 d
b1011 c
b1101 =
08
03
#1360000
0!
0#
0+
#1365000
1!
1#
1+
b1100 c
b1110 =
#1370000
0!
0#
0+
#1375000
1!
1#
1+
b1101 c
b1111 =
18
13
#1380000
0!
0#
0+
#1385000
1!
1#
1+
b10011100001101 d
b1110 c
b10000 =
08
03
#1390000
0!
0#
0+
#1395000
1!
1#
1+
b1111 c
b10001 =
18
13
#1400000
0!
0#
0+
#1405000
1!
1#
1+
b1010011100001101 d
b10000 c
17
08
03
12
#1410000
0!
0#
0+
#1415000
1!
1#
1+
b10100111 T
b0 f
b0 c
1A
16
#1420000
0!
0#
0+
#1425000
1!
1#
1+
0A
b0 d
b0 =
19
b0 >
10
06
1(
#1430000
0!
0#
0+
#1435000
1!
1#
1+
b1 >
09
00
0(
b101010 @"
b1101000011010011000110000101001 x!
b101010 ?"
b11101 %
b1110011 &
b1110011 .
b11101 -
#1440000
0!
0#
0+
#1445000
1!
1#
1+
b1110011000111011 ;
b10 >
#1450000
0!
0#
0+
#1455000
1!
1#
1+
07
b11 >
02
#1460000
0!
0#
0+
#1465000
1!
1#
1+
b1 f
b1 =
18
13
#1470000
0!
0#
0+
#1475000
1!
1#
1+
b10 f
b10 =
#1480000
0!
0#
0+
#1485000
1!
1#
1+
b1 d
b1 c
b11 =
08
03
#1490000
0!
0#
0+
#1495000
1!
1#
1+
b10 c
b100 =
18
13
#1500000
0!
0#
0+
#1505000
1!
1#
1+
b101 d
b11 c
b101 =
#1510000
0!
0#
0+
#1515000
1!
1#
1+
b1101 d
b100 c
b110 =
#1520000
0!
0#
0+
#1525000
1!
1#
1+
b11101 d
b101 c
b111 =
08
03
#1530000
0!
0#
0+
#1535000
1!
1#
1+
b110 c
b1000 =
#1540000
0!
0#
0+
#1545000
1!
1#
1+
b111 c
b1001 =
#1550000
0!
0#
0+
#1555000
1!
1#
1+
b1000 c
b1010 =
18
13
#1560000
0!
0#
0+
#1565000
1!
1#
1+
b100011101 d
b1001 c
b1011 =
#1570000
0!
0#
0+
#1575000
1!
1#
1+
b1100011101 d
b1010 c
b1100 =
08
03
#1580000
0!
0#
0+
#1585000
1!
1#
1+
b1011 c
b1101 =
#1590000
0!
0#
0+
#1595000
1!
1#
1+
b1100 c
b1110 =
18
13
